{
	"header": {
		"status": "success",
		"pageNumber": 1,
		"pageSize": 25,
		"totalElements": 488191,
		"totalPages": 19528
	},
	"payload": [
		{
			"id": 1,
			"date": "20200101",
			"program": [
				{
					"programName": "abc",
					"id": "xxxx"
				}
			],
			"rating": 1
		},
		{
			"id": 2,
			"date": "20200102",
			"program": [
				{
					"programName": "abc",
					"id": "xxxx"
				}
			],
			"rating": 2
		},
		{
			"id": 3,
			"date": "20200103",
			"program": [
				{
					"programName": "abc",
					"id": "xxxx"
				}
			],
			"rating": 3
		},
		{
			"id": 4,
			"date": "20200104",
			"program": [
				{
					"programName": "abc",
					"id": "xxxx"
				}
			],
			"rating": 4
		},
		{
			"id": 5,
			"date": "20200105",
			"program": [
				{
					"programName": "abc",
					"id": "xxxx"
				}
			],
			"rating": 5
		},
		{
			"id": 6,
			"date": "20200106",
			"program": [
				{
					"programName": "abc",
					"id": "xxxx"
				}
			],
			"rating": 6
		},
		{
			"id": 7,
			"date": "20200107",
			"program": [
				{
					"programName": "abc",
					"id": "xxxx"
				}
			],
			"rating": 7
		},
		{
			"id": 8,
			"date": "20200108",
			"program": [
				{
					"programName": "abc",
					"id": "xxxx"
				}
			],
			"rating": 8
		}
	]
}